Text,Label
kalo gila jangan keterlaluan apa,1
gila banget sih lu jadi orang,1
ente ente yang gila,1
budek lu ya,1
jangan gitu nyet,1
sifat lu tuh kayak iblis,1
begonya keterlaluan,1
bangsat lu pada,1
kampret lu,1
jangan gitu pekok,1
eh gembel,1
bahan bakar dari tai hewan adalah biogas,0
ceking bener lu jadi manusia,1
liat ada babi,0
ahh idiot lu,1
mati aja lu tai,1
muka lu bejad,1
lu waras ga ituh tempat ibadah bukan tempat wisata dasar goblok ,1
anjing kampret semoga dia cepat dipancung,1
cuk gateli,1
idiot banget jadi orang,1
aku msh cinta kamu tp knapa kamu kok kyak bangsat,1
tau dari mana lu bangsat,1
dimana orang kampret itu,1
jancik koe,1
kenapa lo ambil itu bajingan,1
ahh gembel lu,1
kenapa lu ambil itu goblok,1
gila lu ya,1
lah sigoblok,1
ngapain lu goblok,1
heran sama lu anjing,1
kampungan bener jadi orang,1
diliput kampret marah ga diliput raja iblisnya ngamuk,1
asu lah,1
mardani ngomongnya kayak seorang banci,1
kau kira ini batu apa ini hati anjing,1
kipas kipas angin angin kampret lagi kepanasan,1
jadi orang bejad banget asli,1
babi kalian semua,1
tai juga nih orang,1
lambemu bau,1
ceking di pelihara,1
si tai nyuruh orang belajar ngaji dia juga ngaji gak bener tai,1
ehh gila,1
sabarlah anjing lu kira hidup gua rp doang,1
jangan ngomong doang bangke,1
tuh mulut kampret bisa dimasukin terong sama pisang buat diemuttt,1
apaan lu tai,1
he gigi ompong cebong goblok e anjing tolol bela apaaan kamu ssh jelas2 salah masi di bela  dasar kampret kamu kira di arab sana bodok kaya kamu ya e bangsat ompong tolol,1
babi lu,1
anjing lu goblok,1
ini kalakuan bani kampret menjijikan skali,1
eh mesum jauh jauh lu,1
kenape tai,1
si bego bisa aja,1
babi itu bermain dilumpur,0
mau apa lo kunyuk,1
menjelang pilpres semakin enek liat para kampret  pengen gua sleding deh,1
monyet itu udah mati,0
ah kampret,1
kalo bego jangan di pelihara napa,1
cocok buat loe yang lagi marah dan pengen marah,0
tai adalah ampas makanan dari dalam perut,0
monyet itu berisik sekali kalau banyak orang,0
ga guna lu goblok,1
woi jancok,1
gilanya gak ketolongan,1
bagaimana cara babi bertahan hidup,0
lu tuh yang goblok,1
apa kabar cuk,1
itu cebong,1
anjing itu lucu sekali,0
apa apaan nih bangke juga tuh orang ,1
kenapa anjing itu sedih,0
apasih njing,1
ngapain lu ngerjain itu bangke gua kan udah ngerjain,1
liat si kunyuk tuh,1
disini sudah kelihatan yang goblok yang mana kalo menurut anda yang goblok si novel ompong acungkan jempol,1
bangke anjing,1
anjingku nakal sekali,0
anjing dan kucing kejar-kejaran,0
kau ini niat mencari sekutu atau tidak brengsek,1
muka lu mirip babi,1
dasar banci,1
woi idiot jangan lewat sini,1
dasar bangsat,1
murah amat kayak perek,1
ah setan,1
apaan lu bangsat,1
ehh gembrot,1
sarap kau,1
malem minggu asu satu pun ga ada cewe yang mau di ajak jalan sama gua,1
muke bajingan yang tdk menghargai  wartawan tdk mencerminkan orang beragama ,1
goblok  loe kira yang ngerti soal bendera cm loe doang ompong  gila loe ,1
ngeselin lu anjing,1
kamu tau ga babi yang ada di marsha and the bear,0
bego kok nular,1
kenapa sinting bet dah lu,1
ngomongnya ngga berpendidikan bodoh,1
lu ngapain sih bego,1
ehh cebol,1
ga guna anjing,1
kampret lu,1
jancok juga lu,1
gila ya  gun lu gila apa bodoh,1
hei idiot,1
anjing itu larinya cepat sekali,0
ingin menjadi teman adl pekerjaan yang cepat  namun menjadi sahabat adl seperti menunggu masaknya buah  aristoteles,0
monyet itu bernama siamang,0
malesin banget lu sampah,1
pancung aja tuh  si bangsat sundal dasar anjing ,1
anjing itu memakan tikus,0
muka lu jelek banget,1
orang gila niih,1
nampak novel bodohh,1
apaan ngehe,1
jadi orang jangan kayak gay,1
apa njing,1
akun ini penuh dengan capslock dan kata kata kasar didalamnya yang baper mati lo anjing,1
ehh perek,1
kapan kejadiannya kampret,1
muke lu kek tai,1
jadi cewek jangan cebol,1
jalan pake mata emangnya lo buta,1
tai anjing,1
bodoh lah yang baju merah tu itu dajjal,1
woi brengsek,1
jangan gitu gila,1
anjingku gamau makan,0
jangan bego bego napa,1
jangan gitu bego,1
jangan cuma ngomong doang lu asu,1
babi itu lucu,0
bangsat lu tai,1
kok salah gua sih anjing,1
yang goblok & tolol guntur rombi ,1
bajingan juga jadi orang,1
babi itu sering tidur,0
kenapa sih minggu cuma sehari doang  bikin emosi aja,1
jelek mah jelek ae,1
cowok gay mati aja,1
kenapa jadi gitu babi,1
lama-lama lu kek jablay yak,1
apaan bangsat,1
orang dungu ketawa lagi,1
eh dari mana aja lu bangsat,1
ah asu,1
ih ceking banget,1
mati lu hari senin,1
si kunyuk bisa aja,1
ah ceking banget sih,1
itu gimana caranya goblok,1
eh anjing,1
eh kunyuk,1
tai dapat digunakan sebagai pupuk kompos,0
ngapain lu kampret,1
gua,0
jangan cuma ngomong doang lu kampret,1
kurang ajar lu goblok,1
monyet adalah hewan yang dilindungi,0
ga ada adab anjir,1
si tolol kemana aja,1
monyet itu besar sekali,0
jancok koe,1
gua lagi enak tidur kenapa loe bangunin nyong,0
udah tau si cabul onta kabur,1
woy tu cewe gua ngapain lu ganggu bangsatt ga punya cewe kasian banget lu,1
banci amat ya,1
nyolot bener lu kalo dipanggil,1
jangan cuma ngomong doang lu bangsat,1
bajingan emang lu jadi orang,1
ahh tolol banget sih,1
ngapain cuk,1
when temen yang sok pinter dapet nilai lebih kecil dari lu mamam tuh anjeng gua mah ga belajar dapet gede,1
siapa yang kampret,1
mana anjingku,0
ketika aku tak berada di samping mu bukan berarti aku tidak bersamamu  ingat hatiku selalu bersamamu,0
lu tuh anjing,1
bencong juga lu,1
punya kuping jangan budek budek napa,1
kurap kok dimana mana,1
ceking banget sih lo,1
stop bahas kelakuan para kampret  kalo terlalu sering dibahas sama saja kita,1
apa pecun,1
jangan jelek jelek napa muke lu,1
tolol nya ga ketulungan,1
pintere ngebacot,1
goblok gak ketulungan ,1
apa setan,1
bajingan pengen bacok ndase,1
apa-apaan nih tai,1
sialan lu bangsat,1
lu asu,1
kenapa kubu sono kalo ngomong asal mangap,1
lu ngaku aja iya gua yang suruh bakar tuh bendera gitu goblok endas menyon,1
dasar jancok,1
cebong goblok sadarlah lu istigfarlah lu jangan kamu mendzolimin ulama dan habib2 kami omongan lu sudah ga jelas ngaco  dasar cebong ustad penjilat lu,1
woy ni tweet pertama aku,0
gigitan anjing dapat menyebabkan rabies,0
ah kampungan,1
saya ada di gua kampret,0
mardani kalo mulutnya mesem sperti banci kaleng,1
muka lu kampungan,1
daritadi di cariin pekok lu,1
apa babi,1
reoni bela iblis lhah bocor pesertanya isi tai kuda,1
anjing kesandung gua,1
dasar bangke,1
makin keliatan begokkknya bacot kayak anus ketek,1
apasih anjing,1
babi itu gemuk,0
jangan gitu bego,1
drama mulu lu anjing ,1
jancok kalian semua,1
pengen gua getok pake palu palanya si asu tolol ,1
liat itu monyet,0
udik lu jadi orang,1
babi,0
monyet itu makan pisang,0
aku mau beli makanan anjing,0
jadi orang jablay banget asli,1
lu ngapain sih pekok,1
ehh tocil,1
babi itu berkelahi,0
kaum sampah,1
ngapain lu asu,1
babi itu sedang tidur,0
eh sinting,1
lambemu,1
kurang aja juga lu bangke,1
tolol kok turunan,1
jaga kau punya bacot lu bkn level nya nantang memang lu siapa jaga lu pnya bacot kami diam bukan kami takut ingat itu,1
kamu bukan hanya ada di hatiku tapi juga dipikiranku,0
eh babi,1
wkakakakaka lucu lu anjeng,1
pdkt kau jadi malaikat pcran kau jadi manusia pas putus kau jadi iblis,1
apaan,0
apa sarap,1
ada yang punya bokepnya si asu kirim dong,1
bolot bener lu kalo dipanggil,1
orang tolol mah tolol aja,1
jeleknya kelewatan lu,1
manusia iblis mulutnya nyerocos kaya petasan,1
shit gua ketiduran jemuran pada basah kehujanan tai banget sih ga ada yang mau bangunin,1
ngapain lu ngerjain itu bangke gua kan udah ngerjain ,1
hahahah bodoh muter muter si,1
goblok lu pada,1
salah malah di bela kan goblok,1
serah lu anjing,1
gila bener lu,1
ga guna lu bangke,1
gigitan monyet dapat menyebabkan rabies,0
dasar kampret,1
apa apaan lu kampret,1
mau kemana gila,1
bancinnya sampe tulang nih,1
babi lah semua,1
topi lu warna hitam anjing berarti kamu juga isis bangsat,1
geblek lu,1
basi lu tai,1
ah mardani setan,1
anjing lu namanya siapa,0
awas jancok banyak orang tuh mau lewat,1
mati aja lu,1
anjing emang kalian semua,1
ketika orang tersayang menjadi jahanam,1
udik kok nular,1
iblis lu ya,1
buktikan kalau kamu mencintai ibu sang permata dan penyejuk hati,0
yang baju putih tu bodoh goblok gak enak di dengar,1
anjing emang lu,1
bukan lu kampret,1
kalo budek jangan di pelihara napa,1
babi itu keracunan,0
eh goblok jangan kaya gitu,1
tolol lu dah itu ajah,1
tidur lu anjing,1
tai banget jadi orang,1
asu  gua sayang lu catet goblok,1
yang bloon yang pkai bju rompi ,1
setan adalah roh jahat yang selalu menggoda manusia supaya berperilaku jahat,0
sialan lu lu yang nembak gua lu juga yang mutusin gua anjir,1
woi jancok,1
yang bikin kacau bikin masalah ni cuma satu kecebong ,1
gilannya sampe tulang nih,1
setan lu,1
eh ceking,1
itu adalah iblis dajal  dancuk pingin nomjok ,1
goblok lu,1
mau kemana kopet ,1
bangsat adalah kutu busuk,0
monyet itu lucu sekali,0
yang kayak bgtu tu yang dibilang dijamin masuk surganya alloh  biadab,1
jangan jadi banci,1
orang ceking mah ceking aja,1
gaya pacaran yang kalian idam-idamkan itu yang gimana,0
badan lu bantet,1
kampret lu anjing,1
ketika kamu membenci seseorang kamu sedang membuat hidupmu semakin rumit,0
bangsatt lu balikin lepi gua yang lu curi,1
manusia goblok,1
hidup tanpa cinta pasti hampa hidup gila harta pasti celaka hidup bersyukur apa adanya pasti bahagia,0
gay emang lu jadi orang,1
lihat ada anjing hutan,0
perek lu ya ,1
jangan cuma ngomong doang lu anjing,1
gay bet lu tai,1
monyet itu suka menjaihili manusia,0
monyet itu berkelahi,0
apakah anjing itu telah di vaksinasi,0
sinting kalian semua,1
banci bener lu,1
goblok si cabul itu hahaha ,1
ngehe juga lu lama-lama,1
jadi orang jangan ceking makanya,1
banci banget sih lu jadi orang,1
haha anjing nfeat,1
babi kau,1
ga guna lu tai,1
aku punya anjing baru,0
makanya jangan jelek punya komuk tuh,1
kenapa lu ambil itu anjing,1
babi hutan adalah salah satu jenis babi,0
kamu makin lama klihatan goblok ,1
apakah monyet itu terjangkit rabies,0
tolol di pelihara,1
jablay lu ah,1
aku dong min baru lahir nih,0
bego lu jadi orang,1
kampret begitu ya kelakuanmu terhadap awak media takut kelakuanmu di beritakan ya,1
woi bangsat,1
lu kemana kunyuk,1
tolol akut ,1
woi bangke,1
sinting lah semua,1
minggir goblok gua mau lewat,1
eh tolol,1
si guntur tolol ga masuk akal,1
awas ada tai anjing,0
monyet itu keracunan,0
ga gitu juga caranya goblok,1
lu melarang gua menghubungi wanita lain namun lu sendiri berhubungan dengan lelaki lain bangsat  ,1
eh bego,1
kalau hanya mau berteduh lalu kemudian pergi jangan di sini ini hati bukan warung kopi,0
ketahuan tolol nya haha pengen mulut nya tak sobek sobek gak berpendidikan banget ngomong nya,1
dasar goblok,1
goblok kamu,1
bagaimana cara monyet bertahan hidup,0
jadi orang tolol enak gak sih ,1
sekarang juga penggal si goblok itu,1
mungkin kamu semua dalang pemasangan bendera bendera itu dasar penjilat kamu semua,1
buta lu ya,1
eh jancok,1
jika anda tidak meluangkan waktu untuk bersyukur maka anda tdk akan mendapatkan lebih banyak sudahkah anda bersyukur,0
dari mana aja lu goblok,1
mampus lu gua kibulin anjeng,1
sialan lu jancok,1
orang goblok selalu ngotot untuk menutupi kegoblokanya,1
aku mau memberi makan anjingku,0
eh gay,1
habis kesabaran gua anjing,1
lelet bener lu kalo dipanggil,1
anjingku bernama alex,0
gimana ini caranya asu,1
liat si tolol tuh,1
banci lu permanen ya ,1
aku punya tiga tai lalat,0
punya badan jangan gendut gendut napa,1
bencong ni cowok,1
guntur banci banci cebong murahan agamanya agama bencong,1
lu kemana bego,1
congor bosokk,1
dasar orang idiot,1
eh bencong,1
ceking kok turunan,1
badan lu gembrot bener,1
pendek amat jadi orang,1
anjing lu udah mati,0
makan babi bagi umat islam adalah haram,0
helder adalah salah satu jenis anjing,0
cowok bajingan mati aja,1
wah lu kelihatan goblok banget,1
debat sama bencong susah maaf,1
kenapa lu ambil itu gay,1
sinting lu,1
folbek ya mhon kerjasama nya,0
jancok jancok,1
kasian anjingnya cacat,0
bajingan,1
ngaca dulu lu udah bagus atau belum kelakuan lu,1
bancinya gak ketolongan,1
cebol lu ya,1
gila lu permanen ya,1
mngkin aku lahir kedunia untuk mncintaimu dan kau terlahir untuk aku cintai,0
muka lu kayak anjing,1
apaan bangsat,1
goblok,1
tai banget jadi orang,1
mata lu bintitan yak,1
pecun lu jadi orang,1
ompong nyrocos aja bacotnya sampai ompong giginya ,1
monyetnya kok mirip bani malu aja lu nyet,1
faldo tololnya keliatan bgt,1
anjir idiot banget tuh orang,1
serigala itu anjing apa bukan ya,0
si setan sera congor comberan iblis,1
ga guna lu kampret,1
jadi orang ceking enak gak sih,1
setan cebong,1
punya mata gak lu bangsat,1
bego mah bego aja,1
lha iku mulutnya kampret mulut udah nggak benr ngomong juga nggk bener ,1
ga gitu juga geblek,1
daritadi di cariin bego lu,1
jaman sekarang orang pada pandai ngomong orang lain tolol  bodoh  dungu dan segala macem  tapi kadang2 dia sndiri gak,1
jancok lu semua,1
monyet itu bergelantungan dipohon,0
dasar anjing lu ngaku islam tapi akidah lu jual buat yahudi dasar anjing lu keturunan yahudi pki lu pukimak buat romli anak anjing,1
kopet lu ah,1
kok ngegas asu,1
eh bajingan,1
itu muka udah kayak sisik ular aja masih belagu,1
kurang ajar lu bangsat,1
kemana aja lu pekok,1
orang bodoh ngapain tu,1
jadi orang jangan tolol makanya,1
bacotnya nyocor terus,1
gak gitu juga tai,1
apakah anjing itu terjangkit rabies,0
gila emang kalian semua,1
cewek itu paling gak suka dicuekin apa lagi di duain,0
paling males kalau udah ketemu orang yang suka php in orang,0
manusia2 otak dungu,1
mama kau kayak perek,1
mulutnya ga bisa diem tuh si novel gacor banget,1
mau kemana cuk,1
asu itu bahasa jawanya anjing,0
kenapa bisa gitu jancok,1
eh iblis,1
si dani ini banci yang sebenarnya,1
sifat lu tuh bejat,1
babi itu sepertinya sudah mati,0
malu2in org betawi iblis,1
ketok goblok e ngunu vel,1
kenapa bisa gitu ncong,1
kelihatan betul  kalo goblok goblok goblok goblok goblok goblok,1
sing goblok ketok goblok,1
mama kau cebol,1
jadi orang jangan kayak bajingan,1
apa gay,1
bejad bener sih jadi orang,1
sangat sangat goblok,1
jancok pale lu,1
gak gitu juga idiot,1
ihh tolol banget,1
bacot lu  gua anyam juga jembut lu,1
dasar lelaki brengsek,1
sone ngomong tok bacot nglakoni dewe paling mencret ,1
kemana aja lu bego,1
ga guna lu bangsat,1
anjing itu keracunan,0
idiot banget dah,1
goblok kowe,1
ehh cebol,1
jancok lu anjing,1
kelihatan begonya,1
mau apa lu bego ,1
kualat lu ntar bangke,1
tai lu,1
jangan dimakan itu goblok udah basi makanannya,1
anjing lah semua,1
yang klihtan goblok itu dia bego kecebong lu sok tau babi anjing,1
lu,0
jancok ni tugas,1
jangan gitu anjing,1
anjing itu berkelahi,0
brengsek lu bangsat,1
apa bajingan ,1
otak lu segede biji bapak lu,1
tolol banget sih lu,1
gua gampar lu,1
brengsek lu jadi orang,1
dari mana aja lu cuk ga pernah keliatan kayanya,1
anjing lu,1
tadi lu ngomong apaan asu,1
brengsek juga nih orang,1
tai lu,1
liat ada anjing,0
apa asu,1
apa mau lu anjing,1
si ceking kemana aja,1
ungkapkan isi hati kamu,0
asu lu,1
ini gimana ngerjainnya asu,1
attitudenya nol besar goblok ,1
otaknya dah luntur pemikirannya dah gila stress berat ,1
debat brengsek,1
bencong kalian semua,1
jangan gitu pea,1
jadi cewek jangan kayak perek,1
anjing lu niat gua baik,1
goblok banget nih orang kelihatan anjing pembohong penyebar hoax,1